{
  "widgets": {
    "food-pairings": {
      "cssProperties": {
        "descriptionBackgroundColor": "#4A4A4A",
        "descriptionTextColor": "#4A4A4A",
        "headlineColor": "#ffffff"
      },
      "variable": "food-pairings"
    },
    "latest-video": {
      "cssProperties": {
        "headlineColor": "#4A4A4A"
      },
      "variable": "latest-video"
    },
    "nutrition-information": {
      "cssProperties": {
        "headlineColor": "#4A4A4A",
        "labelBackgroundColor": "#E7E7E7",
        "labelColor": "#4A4A4A",
        "servingSizeColor": "#4A4A4A",
        "textQuantityBackgroundColor": "#EFEFEF",
        "textQuantityColor": "#4A4A4A"
      },
      "variable": "nutrition-information"
    },
    "preparation-and-usage": {
      "cssProperties": {
        "descriptionBackgroundColor": "#4A4A4A",
        "descriptionTextColor": "#4A4A4A",
        "headlineColor": "#4A4A4A"
      },
      "variable": "preparation-and-usage"
    },
    "product-characteristics": {
      "cssProperties": {
        "headlineColor": "#4A4A4A",
        "labelBackgroundColor": "#EFEFEF",
        "labelColor": "#4A4A4A"
      },
      "variable": "product-characteristics"
    },
    "product-sensory-description": {
      "cssProperties": {
        "descriptionBackgroundColor": "#4A4A4A",
        "descriptionTextColor": "#4A4A4A",
        "headlineColor": "#4A4A4A",
        "titleBackgroundColor": "#4A4A4A",
        "titleTextColor": "#4A4A4A"
      },
      "variable": "product-sensory-description"
    },
    "product-strength-module": {
      "cssProperties": {
        "headlineColor": "#4A4A4A",
        "labelBackgroundColor": "#EFEFEF",
        "labelBorderColor": "#4A4A4A",
        "labelColor": "#4A4A4A"
      },
      "variable": "product-strength-module"
    },
    "product-style": {
      "cssProperties": {
        "headlineColor": "#4A4A4A",
        "labelBackgroundColor": "#EFEFEF",
        "labelColor": "#4A4A4A"
      },
      "variable": "product-style"
    },
    "recipes": {
      "cssProperties": {
        "descriptionBackgroundColor": "#4A4A4A",
        "descriptionTextColor": "#4A4A4A",
        "headlineColor": "#4A4A4A"
      },
      "variable": "recipes"
    },
    "text-area": {
      "cssProperties": {
        "headlineColor": "#4A4A4A",
        "textColor": "#4A4A4A"
      },
      "variable": "text-area"
    }
  }
}