{
  "naf01Heading": "",
  "naf02Title": "ADD ADDRESS",
  "naf03CheckboxLabel": "Set as default shipping address",
  "naf04FirstNamePlaceholder": "First Name*",
  "naf05LastNamePlaceholder": "Last Name*",
  "naf06CompanyPlaceholder": "Company (optional)",
  "naf07Address1Placeholder": "Address Line 1*",
  "naf08Address2Placeholder": "Unit #",
  "naf09CityPlaceholder": "City*",
  "naf10PhoneNumberPlaceholder": "Phone Number*",
  "naf11StatePlaceholder": "State*",
  "naf12ZipPlaceholder": "ZIP*",
  "naf13RequiredNotificationText": "* Required Fields",
  "naf14SaveLink": "Save Address",
  "naf15FullAddressPlaceholder": "Enter your full address",
  "naf16TooltipText": "A phone number is needed so that the delivery personnel can contact you in the event of an issue during delivery."
}
