{
  "cep01Title": "Sign In /Register Email",
  "cep02FormLabel": "Please enter your email to checkout",
  "cep03TooltipText":
    "If you have already registered then sign in with your email address. Otherwise use your preferred email address to checkout now.",
  "cep04EmailPlaceholder": "Email",
  "cep05ButtonText": "Next"
}
