{
  "fpp01Heading": "Reset Password",
  "fpp02InfoMsg": "Enter your email to get instructions on resetting your password.",
  "fpp03EmailPlaceholder": "Email",
  "fpp04NotRegisteredEmailMsg": "Sorry this Email not registered !",
  "fpp05OtherLinkText": "Or go back to [Login](/signin)",
  "fpp06ButtonText": "Reset",
  "fpp07NextPageHeading": "Reset Password",
  "fpp08NextPageTitle": "",
  "fpp09NextPageInfo": "An email with instructions to reset your password has been sent to:",
  "fpp10LoginLinkText": "Return to [Login](/signin)",
  "fpp11CheckEmailInfo":" If you don't receive an email, please check your spam."
}
