{
  "pil01Heading": "",
  "pil02Title": "PAYMENT INFORMATION",
  "pil03EmptyInfoMsgLine1": "Your payment informations are currently empty.",
  "pil04EmptyInfoMsgLine2": "Please add it now for quick checkout.",
  "pil05TableHeading1": "Card",
  "pil06TableHeading2": "Default Billing",
  "pil07DeleteLinkText": "Delete",
  "pil08DeleteLinkMobView": "X",
  "pil09DefaultCardHeading": "Default Card",
  "pil10FeatureNotAllowedInfo": "This feature is temporarily not available for the chosen purchase type"
}
