{
  "pdp01NotAvailableMsgLine1": "Please enter your address to see if this and other products are available in your area.",
  "pdp02NotAvailableMsgLine2": "Sorry, this product is currently not available in your area. Shop for other products now.",
  "pdp03NotAvailableMsgLine3": "Sorry, no products are currently available in your area. Please change your address.",
  "pdp04EnterAddressBtn": "enter your address",
  "pdp05ChangeAddressButtonText": "Change delivery address",
  "pdp06HeadingRetailer": "Retailer",
  "pdp07HeadingPackSize": "Size",
  "pdp08HeadingQuantity": "Quantity",
  "pdp09HeadingDelivery": "Delivery",
  "pdp10DeliveryWindowError1hr": "1 Hour Delivery Not Available",
  "pdp11DeliveryWindowError2Day": "2 - 3 Day Shipping Not Available",
  "pdp12DeliveryWindow2Day": "2 - 3 Day Shipping",
  "pdp13TooltipTextLine1": "Every attempt is made to get your delivery to you in under one hour. This service is provided by ",
  "pdp14TooltipTextLine2": " and powered by ",
  "pdp15TooltipTextLine3": ". Valid ID required upon delivery. All customer service queries should be made to ",
  "pdp16TooltipTextLine4": " Support.",
  "pdp17AddToCartButtonText": "add to cart",
  "pdp18PoweredBy": "Powered By",
  "pdp19BottomListHeading": "You might also like",
  "pdp20ProductUnavailableText": "UNAVAILABLE"
}
