{
  "hdt01AccountSettingsLink": {
    "text": "Account Settings",
    "path": "/account/security",
    "target": "_self"
  },
  "hdt02OrderHistoryLink": {
    "text": "Orders",
    "path": "/orderReview",
    "target": "_self"
  },
  "hdt03AddressLink": {
    "text": "Address",
    "path": "/address",
    "target": "_self"
  },
  "hdt04PaymentLink": {
    "text": "Payment Information",
    "path": "/paymentinfo",
    "target": "_self"
  }
}
